id,name,model_id:id,group_id:id,perm_read,perm_write,perm_create,perm_unlink
access_template_criteria,template.criteria,model_template_criteria,hr_appraisal.group_hr_appraisal_user,1,1,1,0
access_template_criteria_program,template.criteria.program,model_template_criteria,hr_appraisal.group_program_manager,1,1,1,0
access_template_criteria_project,template.criteria.project,model_template_criteria,hr_appraisal.group_project_manager,1,1,1,0
access_template_criteria_gm,template.criteria.gm,model_template_criteria,hr_appraisal.group_general_manager,1,1,1,1
access_appraisal_template,appraisal.template,model_appraisal_template,hr_appraisal.group_hr_appraisal_user,1,1,1,0
access_appraisal_template_program,appraisal.template.program,model_appraisal_template,hr_appraisal.group_program_manager,1,1,1,0
access_appraisal_template_project,appraisal.template.project,model_appraisal_template,hr_appraisal.group_project_manager,1,1,1,0
access_appraisal_template_gm,appraisal.template.gm,model_appraisal_template,hr_appraisal.group_general_manager,1,1,1,0
access_employee_appraisal_details,employee.appraisal.details,model_employee_appraisal_details,hr_appraisal.group_hr_appraisal_user,1,1,1,0
access_employee_appraisal_details_program,employee.appraisal.details.program,model_employee_appraisal_details,hr_appraisal.group_program_manager,1,1,1,0
access_employee_appraisal_details_project,employee.appraisal.details.project,model_employee_appraisal_details,hr_appraisal.group_project_manager,1,1,1,0
access_employee_appraisal_details_gm,employee.appraisal.details.gm,model_employee_appraisal_details,hr_appraisal.group_general_manager,1,1,1,1
access_manager_appraisal_details,manager.appraisal.details,model_manager_appraisal_details,hr_appraisal.group_hr_appraisal_user,1,1,1,0
access_manager_appraisal_details_program,manager.appraisal.details.program,model_manager_appraisal_details,hr_appraisal.group_program_manager,1,1,1,0
access_manager_appraisal_details_project,manager.appraisal.details.project,model_manager_appraisal_details,hr_appraisal.group_project_manager,1,1,1,0
access_manager_appraisal_details_gm,manager.appraisal.details.gm,model_manager_appraisal_details,hr_appraisal.group_general_manager,1,1,1,0
access_probation_appraisal_details,probation.appraisal.details,model_probation_appraisal_details,hr_appraisal.group_hr_appraisal_user,1,1,1,0
access_probation_appraisal_details_program,probation.appraisal.details.program,model_probation_appraisal_details,hr_appraisal.group_program_manager,1,1,1,0
access_probation_appraisal_details_project,probation.appraisal.details.project,model_probation_appraisal_details,hr_appraisal.group_project_manager,1,1,1,0
access_probation_appraisal_details_gm,probation.appraisal.details.gm,model_probation_appraisal_details,hr_appraisal.group_general_manager,1,1,1,0
access_annual_appraisal_details,annual.appraisal.details,model_annual_appraisal_details,hr_appraisal.group_hr_appraisal_user,1,1,1,0
access_annual_appraisal_details_program,annual.appraisal.details.program,model_annual_appraisal_details,hr_appraisal.group_program_manager,1,1,1,0
access_annual_appraisal_details_project,annual.appraisal.details.project,model_annual_appraisal_details,hr_appraisal.group_project_manager,1,1,1,0
access_annual_appraisal_details_annual,annual.appraisal.details.gm,model_annual_appraisal_details,hr_appraisal.group_general_manager,1,1,1,0
access_probation_appraisal,probation.appraisal,model_probation_appraisal,hr_appraisal.group_hr_appraisal_user,1,1,1,0
access_probation_appraisal_program,probation.appraisal.program,model_probation_appraisal,hr_appraisal.group_program_manager,1,1,1,0
access_probation_appraisal_project,probation.appraisal.project,model_probation_appraisal,hr_appraisal.group_project_manager,1,1,1,0
access_probation_appraisal_gm,probation.appraisal.gm,model_probation_appraisal,hr_appraisal.group_general_manager,1,1,1,0
access_annual_appraisal,annual.appraisal,model_annual_appraisal,hr_appraisal.group_hr_appraisal_user,1,1,1,0
access_annual_appraisal_program,annual.appraisal.program,model_annual_appraisal,hr_appraisal.group_program_manager,1,1,1,0
access_annual_appraisal_project,annual.appraisal.project,model_annual_appraisal,hr_appraisal.group_project_manager,1,1,1,0
access_annual_appraisal_gm,annual.appraisal.gm,model_annual_appraisal,hr_appraisal.group_general_manager,1,1,1,0
access_hr_contract_user,hr.contract.user,hr_contract.model_hr_contract,base.group_user,1,0,0,0

